uuid,subscriber_id,caller_number,duration,state,cronological order,serviced status,status,start time,end time,language,laststate,
011SRRKTM8FT59LQ7C0182LAES1531BV,1001579620,9886977077,14.965115162,COF_BOT_REMOTE,0,No,Disconnected by Customer-Others,2021-09-28 15:16:46,2021-09-28 15:17:00,english,COF_BOT_REMOTE,
011SRRKTM8FT59LQ7C0182LAES1531LF,1001579620,9886977077,13.48901605,COF_BOT_REMOTE,0,No,UC3_NO,2021-09-28 15:18:33,2021-09-28 15:18:46,english,SUBSEQUENT_QUERY_COF_REMOTE_NO,
011SRRKTM8FT59LQ7C0182LAES1531LF,1001579620,9886977077,13.48901605,SUBSEQUENT_QUERY_COF_REMOTE_NO,1,No,UC3_NO,2021-09-28 15:18:33,2021-09-28 15:18:46,english,SUBSEQUENT_QUERY_COF_REMOTE_NO,
011SRRKTM8FT59LQ7C0182LAES153N63,1001579620,7090665942,135.348828502,COF_BOT_REMOTE,0,Yes,UC3_SLOT_BOOKED_HANGUP,2021-09-28 17:26:34,2021-09-28 17:28:49,english,HANGUP_SUCCESSFUL,SUCCESS
011SRRKTM8FT59LQ7C0182LAES153N63,1001579620,7090665942,135.348828502,CHANGE_BATTERIES,1,Yes,UC3_SLOT_BOOKED_HANGUP,2021-09-28 17:26:34,2021-09-28 17:28:49,english,HANGUP_SUCCESSFUL,SUCCESS
011SRRKTM8FT59LQ7C0182LAES153N63,1001579620,7090665942,135.348828502,TATASKY_REMOTE_LED,2,Yes,UC3_SLOT_BOOKED_HANGUP,2021-09-28 17:26:34,2021-09-28 17:28:49,english,HANGUP_SUCCESSFUL,SUCCESS
011SRRKTM8FT59LQ7C0182LAES153N63,1001579620,7090665942,135.348828502,REQUEST_CONFIRMATION,3,Yes,UC3_SLOT_BOOKED_HANGUP,2021-09-28 17:26:34,2021-09-28 17:28:49,english,HANGUP_SUCCESSFUL,SUCCESS
011SRRKTM8FT59LQ7C0182LAES153N63,1001579620,7090665942,135.348828502,CONFIRM_REPLACEMENT,4,Yes,UC3_SLOT_BOOKED_HANGUP,2021-09-28 17:26:34,2021-09-28 17:28:49,english,HANGUP_SUCCESSFUL,SUCCESS
011SRRKTM8FT59LQ7C0182LAES153N63,1001579620,7090665942,135.348828502,PLACE_ORDER_OCS,5,Yes,UC3_SLOT_BOOKED_HANGUP,2021-09-28 17:26:34,2021-09-28 17:28:49,english,HANGUP_SUCCESSFUL,SUCCESS
011SRRKTM8FT59LQ7C0182LAES153N63,1001579620,7090665942,135.348828502,PICK_TIME_SLOT_REMOTE_OCS,6,Yes,UC3_SLOT_BOOKED_HANGUP,2021-09-28 17:26:34,2021-09-28 17:28:49,english,HANGUP_SUCCESSFUL,SUCCESS
011SRRKTM8FT59LQ7C0182LAES153N63,1001579620,7090665942,135.348828502,HANGUP_SUCCESSFUL,7,Yes,UC3_SLOT_BOOKED_HANGUP,2021-09-28 17:26:34,2021-09-28 17:28:49,english,HANGUP_SUCCESSFUL,SUCCESS
011SRRKTM8FT59LQ7C0182LAES153T72,1001579620,7090665942,130.307727004,COF_BOT_REMOTE,0,Yes,UC3_SLOT_BOOKED_HANGUP,2021-09-28 18:01:17,2021-09-28 18:03:27,english,HANGUP_SUCCESSFUL,SUCCESS
011SRRKTM8FT59LQ7C0182LAES153T72,1001579620,7090665942,130.307727004,CHANGE_BATTERIES,1,Yes,UC3_SLOT_BOOKED_HANGUP,2021-09-28 18:01:17,2021-09-28 18:03:27,english,HANGUP_SUCCESSFUL,SUCCESS
011SRRKTM8FT59LQ7C0182LAES153T72,1001579620,7090665942,130.307727004,TATASKY_REMOTE_LED,2,Yes,UC3_SLOT_BOOKED_HANGUP,2021-09-28 18:01:17,2021-09-28 18:03:27,english,HANGUP_SUCCESSFUL,SUCCESS
011SRRKTM8FT59LQ7C0182LAES153T72,1001579620,7090665942,130.307727004,REQUEST_CONFIRMATION,3,Yes,UC3_SLOT_BOOKED_HANGUP,2021-09-28 18:01:17,2021-09-28 18:03:27,english,HANGUP_SUCCESSFUL,SUCCESS
011SRRKTM8FT59LQ7C0182LAES153T72,1001579620,7090665942,130.307727004,CONFIRM_REPLACEMENT,4,Yes,UC3_SLOT_BOOKED_HANGUP,2021-09-28 18:01:17,2021-09-28 18:03:27,english,HANGUP_SUCCESSFUL,SUCCESS
011SRRKTM8FT59LQ7C0182LAES153T72,1001579620,7090665942,130.307727004,PLACE_ORDER_OCS,5,Yes,UC3_SLOT_BOOKED_HANGUP,2021-09-28 18:01:17,2021-09-28 18:03:27,english,HANGUP_SUCCESSFUL,SUCCESS
011SRRKTM8FT59LQ7C0182LAES153T72,1001579620,7090665942,130.307727004,PICK_TIME_SLOT_REMOTE_OCS,6,Yes,UC3_SLOT_BOOKED_HANGUP,2021-09-28 18:01:17,2021-09-28 18:03:27,english,HANGUP_SUCCESSFUL,SUCCESS
011SRRKTM8FT59LQ7C0182LAES153T72,1001579620,7090665942,130.307727004,HANGUP_SUCCESSFUL,7,Yes,UC3_SLOT_BOOKED_HANGUP,2021-09-28 18:01:17,2021-09-28 18:03:27,english,HANGUP_SUCCESSFUL,SUCCESS
